Version 4
SHEET 1 1032 680
WIRE -32 48 -64 48
WIRE -16 48 -32 48
WIRE 112 48 64 48
WIRE 240 48 192 48
WIRE 272 48 240 48
WIRE -64 112 -64 48
WIRE 240 112 240 48
WIRE -64 256 -64 192
WIRE 240 256 240 176
WIRE 240 256 -64 256
WIRE 240 288 240 256
FLAG 240 288 0
FLAG 272 48 ANT
IOPIN 272 48 Out
FLAG -32 48 TX
SYMBOL ind2 96 64 R270
WINDOW 0 -16 48 VTop 2
WINDOW 3 -16 48 VBottom 2
SYMATTR InstName L1
SYMATTR Value {l}
SYMATTR Type ind
SYMBOL cap 224 112 R0
WINDOW 0 40 32 Left 2
WINDOW 3 32 48 Left 2
SYMATTR InstName C1
SYMATTR Value {c_f}
SYMBOL Misc\\EuropeanResistor 80 32 R90
WINDOW 0 48 56 VBottom 2
WINDOW 3 49 56 VTop 2
SYMATTR InstName R1
SYMATTR Value {r_ser}
SYMBOL voltage -64 96 R0
WINDOW 0 51 44 Left 2
WINDOW 3 46 64 Left 2
WINDOW 123 0 0 Left 0
WINDOW 39 0 0 Left 0
SYMATTR InstName V1
SYMATTR Value SINE(0 1 {freq})
TEXT 0 304 Left 2 !.tran 0 350u 0 5n
TEXT 96 272 Left 2 !.param l=47n
TEXT -56 272 Left 2 !.param r_ser=0.05
TEXT 96 288 Left 2 !.param c_f=220u
TEXT -56 288 Left 2 !.param freq=28.0Meg
